{
  "marvel": {
    "api": {
      "keys": {
        "public": "-",
        "secret": "-"
      },
      "endpoints": {
        "base": "http://gateway.marvel.com",
        "public": {
          "base": "/v1/public",
          "characters": {
            "base": "/characters",
            "id": "/${characterId}",
            "comics": "/${characterId}/comics",
            "events": "/${characterId}/events",
            "series": "/${characterId}/series",
            "stories": "/${characterId}/stories"
          }
        }
      }
    }
  }
}